{
  "name": "mymodule",
  "version": "1.0.0",
  "author": "js",
  "summary": "",
  "license": "Apache-2.0",
  "source": "",
  "project_page": "",
  "issues_url": "",
  "dependencies": [],
  "operatingsystem_support": [
    {
      "operatingsystem": "RedHat",
      "operatingsystemrelease": [
        "6",
        "7",
        "8"
      ]
    },
    {
      "operatingsystem": "CentOS",
      "operatingsystemrelease": [
        "6",
        "7",
        "8"
      ]
    },
    {
      "operatingsystem": "OracleLinux",
      "operatingsystemrelease": [
        "6",
        "7"
      ]
    },
    {
      "operatingsystem": "Scientific",
      "operatingsystemrelease": [
        "6",
        "7"
      ]
    },
    {
      "operatingsystem": "Debian",
      "operatingsystemrelease": [
        "8",
        "9",
        "10"
      ]
    },
    {
      "operatingsystem": "SLES",
      "operatingsystemrelease": [
        "12",
        "15"
      ]
    },
    {
      "operatingsystem": "Ubuntu",
      "operatingsystemrelease": [
        "14.04",
        "16.04",
        "18.04",
        "20.04"
      ]
    }
  ],
  "requirements": [
    {
      "name": "puppet",
      "version_requirement": ">= 6.0.0 < 8.0.0"
    }
  ],
  "description": "Module for custome configuration",
  "pdk-version": "1.18.1",
  "template-url": "https://github.com/puppetlabs/pdk-templates.git#main",
  "template-ref": "heads/main-0-g44cc7ed"
}
